Ventic, Savannah-M11-2-Application
…
student_ratio <- read_csv("https://raw.githubusercontent.com/rfordatascience/tidytuesday/master/data/2019/2019-05-07/student_teacher_ratio.csv")

Rows: 5189 Columns: 8
── Column specification ────────────────────────────────────────────────────────
Delimiter: ","
chr (6): edulit_ind, indicator, country_code, country, flag_codes, flags
dbl (2): year, student_ratio

ℹ Use `spec()` to retrieve the full column specification for this data.
ℹ Specify the column types or set `show_col_types = FALSE` to quiet this message.

# Print the data to confirm it loaded
student_ratio

# A tibble: 5,189 × 8
   edulit_ind indicator      country_code country  year student_ratio flag_codes
   <chr>      <chr>          <chr>        <chr>   <dbl>         <dbl> <chr>     
 1 PTRHC_2    Lower Seconda… MRT          Maurit…  2013         56.6  <NA>      
 2 PTRHC_2    Lower Seconda… MRT          Maurit…  2014         51.9  <NA>      
 3 PTRHC_2    Lower Seconda… MRT          Maurit…  2015         53.2  <NA>      
 4 PTRHC_2    Lower Seconda… MRT          Maurit…  2016         38.2  <NA>      
 5 PTRHC_1    Primary Educa… COD          Democr…  2012         34.7  <NA>      
 6 PTRHC_1    Primary Educa… COD          Democr…  2013         37.1  <NA>      
 7 PTRHC_1    Primary Educa… COD          Democr…  2014         35.3  <NA>      
 8 PTRHC_1    Primary Educa… COD          Democr…  2015         33.2  <NA>      
 9 PTRHC_3    Upper Seconda… SYR          Syrian…  2013          8.47 <NA>      
10 PTRHC_02   Pre-Primary E… GNQ          Equato…  2012         17.5  <NA>      
# ℹ 5,179 more rows
# ℹ 1 more variable: flags <chr>
…
# Count countries
student_ratio |>
  count(country)

# A tibble: 232 × 2
   country                  n
   <chr>                <int>
 1 Afghanistan             13
 2 Africa (Northern)       30
 3 Africa (Sub-Saharan)    28
 4 Albania                 36
 5 Algeria                 18
 6 Andorra                 29
 7 Angola                   7
 8 Antigua and Barbuda     13
 9 Arab States             30
10 Argentina                5
# ℹ 222 more rows

Q8.3. Next, draw a chart that shows the top and bottom 10 countries in student-teacher ratio for 2012.

student_ratio_2012 <- student_ratio |>
  filter(year == 2012) |>
  select(country, student_ratio) |>
  drop_na()

student_ratio_2012

# A tibble: 823 × 2
   country                                    student_ratio
   <chr>                                              <dbl>
 1 Democratic Republic of the Congo                   34.7 
 2 Equatorial Guinea                                  17.5 
 3 Armenia                                             9.40
 4 Bermuda                                             6.15
 5 Kyrgyzstan                                         23.9 
 6 Mozambique                                         33.1 
 7 Sierra Leone                                       33.0 
 8 Liechtenstein                                      10.7 
 9 Turkey                                             20.1 
10 China, Macao Special Administrative Region         14.1 
# ℹ 813 more rows
…
brisbane_complaints <- readr::read_csv('https://raw.githubusercontent.com/rfordatascience/tidytuesday/master/data/2020/2020-07-21/brisbane_complaints.csv')

Rows: 31330 Columns: 7
── Column specification ────────────────────────────────────────────────────────
Delimiter: ","
chr (7): nature, animal_type, category, suburb, date_range, responsible_offi...

ℹ Use `spec()` to retrieve the full column specification for this data.
ℹ Specify the column types or set `show_col_types = FALSE` to quiet this message.

# Print to confirm
animal_outcomes

# A tibble: 664 × 12
    year animal_type outcome      ACT   NSW    NT   QLD    SA   TAS   VIC    WA
   <dbl> <chr>       <chr>      <dbl> <dbl> <dbl> <dbl> <dbl> <dbl> <dbl> <dbl>
 1  1999 Dogs        Reclaimed    610  3140   205  1392  2329   516  7130     1
 2  1999 Dogs        Rehomed     1245  7525   526  5489  1105   480  4908   137
 3  1999 Dogs        Other         12   745   955   860   380   168  1001     6
 4  1999 Dogs        Euthanized   360  9221     9  9214  1701   599  5217    18
 5  1999 Cats        Reclaimed    111   201    22   206   157    31   884     0
 6  1999 Cats        Rehomed     1442  3913   269  3901  1055   752  3768    62
 7  1999 Cats        Other          0   447     0   386    46   124  1501     5
 8  1999 Cats        Euthanized  1007  8205   847 10554  3415  1056  6113     5
 9  1999 Horses      Reclaimed      0     0     1     0     2     1    87     0
10  1999 Horses      Rehomed        1    12     3     3    10     0    19     0
# ℹ 654 more rows
# ℹ 1 more variable: Total <dbl>

animal_complaints

# A tibble: 42,413 × 5
   `Animal Type` `Complaint Type`  `Date Received` Suburb   `Electoral Division`
   <chr>         <chr>             <chr>           <chr>    <chr>               
 1 dog           Aggressive Animal June 2020       Alice R… Division 1          
 2 dog           Noise             June 2020       Alice R… Division 1          
 3 dog           Noise             June 2020       Alice R… Division 1          
 4 dog           Private Impound   June 2020       Alice R… Division 1          
 5 dog           Wandering         June 2020       Alice R… Division 1          
 6 dog           Attack            June 2020       Black R… Division 1          
 7 dog           Enclosure         June 2020       Black R… Division 1          
 8 dog           Wandering         June 2020       Black R… Division 1          
 9 dog           Enclosure         June 2020       Bluewat… Division 1          
10 dog           Enclosure         June 2020       Bluewat… Division 1          
# ℹ 42,403 more rows

brisbane_complaints

# A tibble: 31,330 × 7
   nature animal_type category        suburb date_range responsible_office city 
   <chr>  <chr>       <chr>           <chr>  <chr>      <chr>              <chr>
 1 Animal Dog         Fencing Issues  SUNNY… 1st-quart… <NA>               Bris…
 2 Animal Dog         Fencing Issues  SUNNY… 1st-quart… <NA>               Bris…
 3 Animal Dog         Defecating In … SUNNY… 1st-quart… <NA>               Bris…
 4 Animal Dog         Fencing Issues  SUNNY… 1st-quart… <NA>               Bris…
 5 Animal Attack      Attack On An A… CALAM… 1st-quart… <NA>               Bris…
 6 Animal Attack      Attack On A Pe… STRET… 1st-quart… <NA>               Bris…
 7 Animal Dog         <NA>            ANNER… 1st-quart… <NA>               Bris…
 8 Animal Attack      Attack On An A… FORES… 1st-quart… <NA>               Bris…
 9 Animal Dog         Fencing Issues  HAWTH… 1st-quart… <NA>               Bris…
10 Animal Dog         Defecating In … HAWTH… 1st-quart… <NA>               Bris…
# ℹ 31,320 more rows
…
